{
	"info": {
		"_postman_id": "39180149-b233-43a7-b048-e781785802c7",
		"name": "PSIDI_FINAL",
		"schema": "https://schema.getpostman.com/json/collection/v2.1.0/collection.json"
	},
	"item": [
		{
			"name": "api",
			"item": [
				{
					"name": "products",
					"item": [
						{
							"name": "Get all products",
							"event": [
								{
									"listen": "test",
									"script": {
										"exec": [
											"pm.test(\"Status code is 200\", function () {",
											"    pm.response.to.have.status(200);",
											"});",
											"",
											"pm.test(\"Body is as expected\", function () {",
											"    var jsonData = pm.response.json();",
											"",
											"    pm.expect(jsonData._links.self.href).to.eql(\"http://localhost:2999/products?page=2&limit=2\");",
											"    pm.expect(jsonData._links.curies[0].name).to.eql(\"psidi\");",
											"    pm.expect(jsonData._links.curies[0].href).to.eql(\"http://localhost:2999/docs\");",
											"    pm.expect(jsonData._links.find.href).to.eql(\"http://localhost:2999/products/{?id}\");",
											"    pm.expect(jsonData._links.find.templated).to.eql(true);",
											"    pm.expect(jsonData._links.next.href).to.eql(\"http://localhost:2999/products?page=3&limit=2\");",
											"    pm.expect(jsonData._links.prev.href).to.eql(\"http://localhost:2999/products?page=1&limit=2\");",
											"    pm.expect(jsonData._links.item[0].href).to.eql(\"http://localhost:2999/products/P3\");",
											"    pm.expect(jsonData._links.item[1].href).to.eql(\"http://localhost:2999/products/P4\");",
											"",
											"    pm.expect(jsonData._embedded.item[0].id).to.eql(\"P3\");",
											"    pm.expect(jsonData._embedded.item[0].description).to.eql(\"Some description 3  \");",
											"    pm.expect(jsonData._embedded.item[0]._links.self.href).to.eql(\"http://localhost:2999/products/P3\");",
											"    pm.expect(jsonData._embedded.item[0]._links[\"psidi:image\"][0].href).to.eql(\"http://localhost:2999/products/P3/images/1\");",
											"    pm.expect(jsonData._embedded.item[0]._links[\"psidi:image\"][1].href).to.eql(\"http://localhost:2999/products/P3/images/2\");",
											"    pm.expect(jsonData._embedded.item[0]._links[\"psidi:image\"][2].href).to.eql(\"http://localhost:2999/products/P3/images/3\");",
											"    pm.expect(jsonData._embedded.item[0]._links[\"psidi:sku\"].href).to.eql(\"http://localhost:2999/products/P3/sku\");",
											"    pm.expect(jsonData._embedded.item[0]._links[\"psidi:reviews\"].href).to.eql(\"http://localhost:2999/products/P3/reviews\");",
											"    pm.expect(jsonData._embedded.item[0]._links[\"psidi:rating\"].href).to.eql(\"http://localhost:2999/products/P3/rating\");",
											"",
											"    pm.expect(jsonData._embedded.item[1].id).to.eql(\"P4\");",
											"    pm.expect(jsonData._embedded.item[1].description).to.eql(\"Some description 4  \");",
											"    pm.expect(jsonData._embedded.item[1]._links.self.href).to.eql(\"http://localhost:2999/products/P4\");",
											"    pm.expect(jsonData._embedded.item[1]._links[\"psidi:image\"][0].href).to.eql(\"http://localhost:2999/products/P4/images/1\");",
											"    pm.expect(jsonData._embedded.item[1]._links[\"psidi:image\"][1].href).to.eql(\"http://localhost:2999/products/P4/images/2\");",
											"    pm.expect(jsonData._embedded.item[1]._links[\"psidi:image\"][2].href).to.eql(\"http://localhost:2999/products/P4/images/3\");",
											"    pm.expect(jsonData._embedded.item[1]._links[\"psidi:sku\"].href).to.eql(\"http://localhost:2999/products/P4/sku\");",
											"    pm.expect(jsonData._embedded.item[1]._links[\"psidi:reviews\"].href).to.eql(\"http://localhost:2999/products/P4/reviews\");",
											"    pm.expect(jsonData._embedded.item[1]._links[\"psidi:rating\"].href).to.eql(\"http://localhost:2999/products/P4/rating\");",
											"});",
											"",
											"pm.test(\"Next page is as expected\", function () {",
											"",
											"    pm.sendRequest({ url: pm.variables.get(\"apiURL\") + pm.request.url.getPath() + \"?page=3&limit=2\" }",
											"        , function (err, res) {",
											"",
											"            var jsonData = res.json();",
											"",
											"            pm.expect(jsonData._links.self.href).to.eql(\"http://localhost:2999/products?page=3&limit=2\");",
											"            pm.expect(jsonData._links.curies[0].name).to.eql(\"psidi\");",
											"            pm.expect(jsonData._links.curies[0].href).to.eql(\"http://localhost:2999/docs\");",
											"            pm.expect(jsonData._links.find.href).to.eql(\"http://localhost:2999/products/{?id}\");",
											"            pm.expect(jsonData._links.find.templated).to.eql(true);",
											"            pm.expect(jsonData._links.next.href).to.eql(\"http://localhost:2999/products?page=4&limit=2\");",
											"            pm.expect(jsonData._links.prev.href).to.eql(\"http://localhost:2999/products?page=2&limit=2\");",
											"            pm.expect(jsonData._links.item[0].href).to.eql(\"http://localhost:2999/products/P5\");",
											"            pm.expect(jsonData._links.item[1].href).to.eql(\"http://localhost:2999/products/P6\");",
											"",
											"            pm.expect(jsonData._embedded.item[0].id).to.eql(\"P5\");",
											"            pm.expect(jsonData._embedded.item[0].description).to.eql(\"Some description 5  \");",
											"            pm.expect(jsonData._embedded.item[0]._links.self.href).to.eql(\"http://localhost:2999/products/P5\");",
											"            pm.expect(jsonData._embedded.item[0]._links[\"psidi:image\"][0].href).to.eql(\"http://localhost:2999/products/P5/images/1\");",
											"            pm.expect(jsonData._embedded.item[0]._links[\"psidi:image\"][1].href).to.eql(\"http://localhost:2999/products/P5/images/2\");",
											"            pm.expect(jsonData._embedded.item[0]._links[\"psidi:image\"][2].href).to.eql(\"http://localhost:2999/products/P5/images/3\");",
											"            pm.expect(jsonData._embedded.item[0]._links[\"psidi:sku\"].href).to.eql(\"http://localhost:2999/products/P5/sku\");",
											"            pm.expect(jsonData._embedded.item[0]._links[\"psidi:reviews\"].href).to.eql(\"http://localhost:2999/products/P5/reviews\");",
											"            pm.expect(jsonData._embedded.item[0]._links[\"psidi:rating\"].href).to.eql(\"http://localhost:2999/products/P5/rating\");",
											"",
											"",
											"            pm.expect(jsonData._embedded.item[1].id).to.eql(\"P6\");",
											"            pm.expect(jsonData._embedded.item[1].description).to.eql(\"Some description 6  \");",
											"            pm.expect(jsonData._embedded.item[1]._links.self.href).to.eql(\"http://localhost:2999/products/P6\");",
											"            pm.expect(jsonData._embedded.item[1]._links[\"psidi:image\"][0].href).to.eql(\"http://localhost:2999/products/P6/images/1\");",
											"            pm.expect(jsonData._embedded.item[1]._links[\"psidi:image\"][1].href).to.eql(\"http://localhost:2999/products/P6/images/2\");",
											"            pm.expect(jsonData._embedded.item[1]._links[\"psidi:image\"][2].href).to.eql(\"http://localhost:2999/products/P6/images/3\");",
											"            pm.expect(jsonData._embedded.item[1]._links[\"psidi:sku\"].href).to.eql(\"http://localhost:2999/products/P6/sku\");",
											"            pm.expect(jsonData._embedded.item[1]._links[\"psidi:reviews\"].href).to.eql(\"http://localhost:2999/products/P6/reviews\");",
											"            pm.expect(jsonData._embedded.item[1]._links[\"psidi:rating\"].href).to.eql(\"http://localhost:2999/products/P6/rating\");",
											"        })",
											"});"
										],
										"type": "text/javascript"
									}
								},
								{
									"listen": "prerequest",
									"script": {
										"exec": [
											""
										],
										"type": "text/javascript"
									}
								}
							],
							"request": {
								"method": "GET",
								"header": [],
								"url": {
									"raw": "{{apiURL}}/products?page=2&limit=2",
									"host": [
										"{{apiURL}}"
									],
									"path": [
										"products"
									],
									"query": [
										{
											"key": "page",
											"value": "2"
										},
										{
											"key": "limit",
											"value": "2"
										},
										{
											"key": "productID",
											"value": "P2",
											"disabled": true
										}
									]
								}
							},
							"response": []
						},
						{
							"name": "Get a specific product",
							"event": [
								{
									"listen": "test",
									"script": {
										"exec": [
											"pm.test(\"Status code is 200\", function () {",
											"    pm.response.to.have.status(200);",
											"});",
											"",
											"pm.test(\"Body is as expected\", function () {",
											"    var jsonData = pm.response.json();",
											"    pm.expect(jsonData.id).to.eql(\"P1\");",
											"    pm.expect(jsonData.description).to.eql(\"Some description 1a \");",
											"",
											"    pm.expect(jsonData._links[\"psidi:image\"][0].href).to.eql(\"http://localhost:2999/products/P1/images/1\");",
											"    pm.expect(jsonData._links[\"psidi:image\"][1].href).to.eql(\"http://localhost:2999/products/P1/images/2\");",
											"    pm.expect(jsonData._links[\"psidi:image\"][2].href).to.eql(\"http://localhost:2999/products/P1/images/3\");",
											"",
											"    pm.expect(jsonData._links[\"psidi:sku\"].href).to.eql(\"http://localhost:2999/products/P1/sku\");",
											"    pm.expect(jsonData._links[\"psidi:reviews\"].href).to.eql(\"http://localhost:2999/products/P1/reviews\");",
											"    pm.expect(jsonData._links[\"psidi:rating\"].href).to.eql(\"http://localhost:2999/products/P1/rating\");",
											"});",
											"",
											"pm.test(\"All details are available\", function () {",
											"    // get image 1",
											"    pm.sendRequest({ url: pm.variables.get(\"apiURL\") + pm.request.url.getPath() + \"/images/1\" }",
											"        , function (err, res) {",
											"            pm.expect(res).to.have.status(200);",
											"        });",
											"",
											"    // get image 2",
											"    pm.sendRequest({ url: pm.variables.get(\"apiURL\") + pm.request.url.getPath() + \"/images/2\" }",
											"        , function (err, res) {",
											"            pm.expect(res).to.have.status(200);",
											"        });",
											"",
											"    // get image 3",
											"    pm.sendRequest({ url: pm.variables.get(\"apiURL\") + pm.request.url.getPath() + \"/images/3\" }",
											"        , function (err, res) {",
											"            pm.expect(res).to.have.status(200);",
											"        });",
											"    // get barcode",
											"    pm.sendRequest({ url: pm.variables.get(\"apiURL\") + pm.request.url.getPath() + \"/sku\" }",
											"        , function (err, res) {",
											"            pm.expect(res).to.have.status(200);",
											"        })",
											"",
											"    // get reviews",
											"    pm.sendRequest({ url: pm.variables.get(\"apiURL\") + pm.request.url.getPath() + \"/reviews\" }",
											"        , function (err, res) {",
											"            pm.expect(res).to.have.status(200);",
											"        })",
											"",
											"        // get rating",
											"    pm.sendRequest({ url: pm.variables.get(\"apiURL\") + pm.request.url.getPath() + \"/rating\" }",
											"        , function (err, res) {",
											"            pm.expect(res).to.have.status(200);",
											"        })",
											"});"
										],
										"type": "text/javascript"
									}
								}
							],
							"request": {
								"method": "GET",
								"header": [],
								"url": {
									"raw": "{{apiURL}}/products/P1",
									"host": [
										"{{apiURL}}"
									],
									"path": [
										"products",
										"P1"
									]
								}
							},
							"response": []
						},
						{
							"name": "Get the aggregated rating of a product",
							"event": [
								{
									"listen": "test",
									"script": {
										"exec": [
											"pm.test(\"Status code is 200\", function () {",
											"    pm.response.to.have.status(200);",
											"});",
											"",
											"pm.test(\"Body is as expected\", function () {",
											"    var jsonData = pm.response.json();",
											"",
											"    pm.expect(jsonData.aggregatedRating).to.eql(3.4);",
											"    pm.expect(jsonData.reviews).to.eql(6);",
											"    pm.expect(jsonData.stars[\"0\"]).to.eql(0);",
											"    pm.expect(jsonData.stars[\"0.5\"]).to.eql(0);",
											"    pm.expect(jsonData.stars[\"1\"]).to.eql(0);",
											"    pm.expect(jsonData.stars[\"1.5\"]).to.eql(1);",
											"    pm.expect(jsonData.stars[\"2\"]).to.eql(0);",
											"    pm.expect(jsonData.stars[\"2.5\"]).to.eql(0);",
											"    pm.expect(jsonData.stars[\"3\"]).to.eql(0);",
											"    pm.expect(jsonData.stars[\"3.5\"]).to.eql(4);",
											"    pm.expect(jsonData.stars[\"4\"]).to.eql(0);",
											"    pm.expect(jsonData.stars[\"4.5\"]).to.eql(0);",
											"    pm.expect(jsonData.stars[\"5\"]).to.eql(1);",
											"",
											"    pm.expect(jsonData._links[\"self\"].href).to.eql(\"http://localhost:2999/products/P1/rating\");",
											"});"
										],
										"type": "text/javascript"
									}
								}
							],
							"request": {
								"method": "GET",
								"header": [],
								"url": {
									"raw": "{{apiURL}}/products/P1/rating",
									"host": [
										"{{apiURL}}"
									],
									"path": [
										"products",
										"P1",
										"rating"
									]
								}
							},
							"response": []
						},
						{
							"name": "Get the SKU of a product",
							"request": {
								"method": "GET",
								"header": [],
								"url": {
									"raw": "{{apiURL}}/products/P1/sku",
									"host": [
										"{{apiURL}}"
									],
									"path": [
										"products",
										"P1",
										"sku"
									]
								}
							},
							"response": []
						},
						{
							"name": "Get a specific image of a product",
							"request": {
								"method": "GET",
								"header": [],
								"url": {
									"raw": "{{apiURL}}/products/P1/images/3",
									"host": [
										"{{apiURL}}"
									],
									"path": [
										"products",
										"P1",
										"images",
										"3"
									]
								}
							},
							"response": []
						}
					]
				},
				{
					"name": "reviews",
					"item": [
						{
							"name": "user",
							"item": [
								{
									"name": "Get  my published reviews",
									"event": [
										{
											"listen": "prerequest",
											"script": {
												"exec": [
													"var request = {",
													"    url: pm.variables.get(\"apiURL\") + \"/auth/basic\",",
													"    method: \"POST\",",
													"    header: 'Content-Type:application/json',",
													"    body: {",
													"        mode: 'raw',",
													"        raw: JSON.stringify({ username: \"user1\", password: \"1234\" })",
													"    },",
													"    json: true",
													"}",
													"",
													"pm.sendRequest(request, function (err, res) {})",
													""
												],
												"type": "text/javascript"
											}
										},
										{
											"listen": "test",
											"script": {
												"exec": [
													"pm.test(\"Status code is 200\", function () {",
													"    pm.response.to.have.status(200);",
													"});",
													"",
													"pm.test(\"Body is as expected\", function () {",
													"    var jsonData = pm.response.json();",
													"",
													"    pm.expect(jsonData._links.self.href).to.eql(\"http://localhost:2999/users/user1/reviews?status=published\");",
													"    pm.expect(jsonData._links.curies[0].name).to.eql(\"psidi\");",
													"    pm.expect(jsonData._links.curies[0].href).to.eql(\"http://localhost:2999/docs\");",
													"    pm.expect(jsonData._links.find.href).to.eql(\"http://localhost:2999/reviews/{?id}\");",
													"    pm.expect(jsonData._links.find.templated).to.eql(true);",
													"    pm.expect(jsonData._links.item[0].href).to.eql(\"http://localhost:2999/reviews/R7\");",
													"    pm.expect(jsonData._links.item[1].href).to.eql(\"http://localhost:2999/reviews/R5\");",
													"",
													"    pm.expect(jsonData._embedded.item[0].id).to.eql(\"R7\");",
													"    pm.expect(jsonData._embedded.item[0].username).to.eql(\"user1\");",
													"    pm.expect(jsonData._embedded.item[0].review).to.eql(\"Some .descriptionzz here7\");",
													"    pm.expect(jsonData._embedded.item[0].votes).to.eql(\"2\");",
													"    pm.expect(jsonData._embedded.item[0].rating).to.eql(\"3.5\");",
													"    pm.expect(jsonData._embedded.item[0].product).to.eql(\"P5\");",
													"    pm.expect(jsonData._embedded.item[0].status).to.eql(\"published\");",
													"    pm.expect(jsonData._embedded.item[0]._links.self.href).to.eql(\"http://localhost:2999/reviews/R7\");",
													"    pm.expect(jsonData._embedded.item[0]._links[\"psidi:product\"].href).to.eql(\"http://localhost:2999/products/P5\");",
													"",
													"    pm.expect(jsonData._embedded.item[1].id).to.eql(\"R5\");",
													"    pm.expect(jsonData._embedded.item[1].username).to.eql(\"user1\");",
													"    pm.expect(jsonData._embedded.item[1].review).to.eql(\"Some .descriptionzz here5\");",
													"    pm.expect(jsonData._embedded.item[1].rating).to.eql(\"3.5\");",
													"    pm.expect(jsonData._embedded.item[1].votes).to.eql(\"0\");",
													"    pm.expect(jsonData._embedded.item[1].product).to.eql(\"P1\");",
													"    pm.expect(jsonData._embedded.item[1].status).to.eql(\"published\");",
													"    pm.expect(jsonData._embedded.item[1]._links.self.href).to.eql(\"http://localhost:2999/reviews/R5\");",
													"    pm.expect(jsonData._embedded.item[1]._links[\"psidi:product\"].href).to.eql(\"http://localhost:2999/products/P1\");",
													"    pm.expect(jsonData._embedded.item[1]._links[\"psidi:delete\"].href).to.eql(\"http://localhost:2999/reviews/R5\");",
													"});"
												],
												"type": "text/javascript"
											}
										}
									],
									"protocolProfileBehavior": {
										"disableBodyPruning": true
									},
									"request": {
										"method": "GET",
										"header": [],
										"body": {
											"mode": "raw",
											"raw": "{\"username\": \"user1\" , \"password\": \"1234\"}",
											"options": {
												"raw": {
													"language": "json"
												}
											}
										},
										"url": {
											"raw": "{{apiURL}}/users/user1/reviews?status=published",
											"host": [
												"{{apiURL}}"
											],
											"path": [
												"users",
												"user1",
												"reviews"
											],
											"query": [
												{
													"key": "status",
													"value": "published"
												}
											]
										}
									},
									"response": []
								},
								{
									"name": "Get all my reviews",
									"event": [
										{
											"listen": "prerequest",
											"script": {
												"exec": [
													"var request = {",
													"    url: pm.variables.get(\"apiURL\") + \"/auth/basic\",",
													"    method: \"POST\",",
													"    header: 'Content-Type:application/json',",
													"    body: {",
													"        mode: 'raw',",
													"        raw: JSON.stringify({ username: \"user1\", password: \"1234\" })",
													"    },",
													"    json: true",
													"}",
													"",
													"pm.sendRequest(request, function (err, res) {})",
													""
												],
												"type": "text/javascript"
											}
										},
										{
											"listen": "test",
											"script": {
												"exec": [
													"pm.test(\"Status code is 200\", function () {",
													"    pm.response.to.have.status(200);",
													"});",
													"",
													"pm.test(\"Body is as expected\", function () {",
													"    var jsonData = pm.response.json();",
													"",
													"    pm.expect(jsonData._links.self.href).to.eql(\"http://localhost:2999/users/user1/reviews\");",
													"    pm.expect(jsonData._links.curies[0].name).to.eql(\"psidi\");",
													"    pm.expect(jsonData._links.curies[0].href).to.eql(\"http://localhost:2999/docs\");",
													"    pm.expect(jsonData._links.find.href).to.eql(\"http://localhost:2999/reviews/{?id}\");",
													"    pm.expect(jsonData._links.find.templated).to.eql(true);",
													"    pm.expect(jsonData._links.item[0].href).to.eql(\"http://localhost:2999/reviews/R1\");",
													"    pm.expect(jsonData._links.item[1].href).to.eql(\"http://localhost:2999/reviews/R7\");",
													"    pm.expect(jsonData._links.item[2].href).to.eql(\"http://localhost:2999/reviews/R5\");",
													"    pm.expect(jsonData._links.item[3].href).to.eql(\"http://localhost:2999/reviews/R6\");",
													"",
													"    pm.expect(jsonData._embedded.item[0].id).to.eql(\"R1\");",
													"    pm.expect(jsonData._embedded.item[0].username).to.eql(\"user1\");",
													"    pm.expect(jsonData._embedded.item[0].review).to.eql(\"Some .descriptionzz here1\");",
													"    pm.expect(jsonData._embedded.item[0].rating).to.eql(\"5\");",
													"    pm.expect(jsonData._embedded.item[0].product).to.eql(\"P1\");",
													"    pm.expect(jsonData._embedded.item[0].status).to.eql(\"pending\");",
													"    pm.expect(jsonData._embedded.item[0]._links.self.href).to.eql(\"http://localhost:2999/reviews/R1\");",
													"    pm.expect(jsonData._embedded.item[0]._links[\"psidi:product\"].href).to.eql(\"http://localhost:2999/products/P1\");",
													"",
													"    pm.expect(jsonData._embedded.item[1].id).to.eql(\"R7\");",
													"    pm.expect(jsonData._embedded.item[1].username).to.eql(\"user1\");",
													"    pm.expect(jsonData._embedded.item[1].review).to.eql(\"Some .descriptionzz here7\");",
													"    pm.expect(jsonData._embedded.item[1].rating).to.eql(\"3.5\");",
													"    pm.expect(jsonData._embedded.item[1].product).to.eql(\"P5\");",
													"    pm.expect(jsonData._embedded.item[1].status).to.eql(\"published\");",
													"    pm.expect(jsonData._embedded.item[1]._links.self.href).to.eql(\"http://localhost:2999/reviews/R7\");",
													"    pm.expect(jsonData._embedded.item[1]._links[\"psidi:product\"].href).to.eql(\"http://localhost:2999/products/P5\");",
													"",
													"    pm.expect(jsonData._embedded.item[2].id).to.eql(\"R5\");",
													"    pm.expect(jsonData._embedded.item[2].username).to.eql(\"user1\");",
													"    pm.expect(jsonData._embedded.item[2].review).to.eql(\"Some .descriptionzz here5\");",
													"    pm.expect(jsonData._embedded.item[2].rating).to.eql(\"3.5\");",
													"    pm.expect(jsonData._embedded.item[2].product).to.eql(\"P1\");",
													"    pm.expect(jsonData._embedded.item[2].status).to.eql(\"published\");",
													"    pm.expect(jsonData._embedded.item[2]._links.self.href).to.eql(\"http://localhost:2999/reviews/R5\");",
													"    pm.expect(jsonData._embedded.item[2]._links[\"psidi:product\"].href).to.eql(\"http://localhost:2999/products/P1\");",
													"",
													"    pm.expect(jsonData._embedded.item[3].id).to.eql(\"R6\");",
													"    pm.expect(jsonData._embedded.item[3].username).to.eql(\"user1\");",
													"    pm.expect(jsonData._embedded.item[3].review).to.eql(\"Some .descriptionzz here6\");",
													"    pm.expect(jsonData._embedded.item[3].rating).to.eql(\"3.5\");",
													"    pm.expect(jsonData._embedded.item[3].product).to.eql(\"P2\");",
													"    pm.expect(jsonData._embedded.item[3].status).to.eql(\"pending\");",
													"    pm.expect(jsonData._embedded.item[3]._links.self.href).to.eql(\"http://localhost:2999/reviews/R6\");",
													"    pm.expect(jsonData._embedded.item[3]._links[\"psidi:product\"].href).to.eql(\"http://localhost:2999/products/P2\");",
													"",
													"",
													"});"
												],
												"type": "text/javascript"
											}
										}
									],
									"protocolProfileBehavior": {
										"disableBodyPruning": true
									},
									"request": {
										"method": "GET",
										"header": [],
										"body": {
											"mode": "raw",
											"raw": "{\"username\": \"user1\" , \"password\": \"1234\"}",
											"options": {
												"raw": {
													"language": "json"
												}
											}
										},
										"url": {
											"raw": "{{apiURL}}/users/user1/reviews",
											"host": [
												"{{apiURL}}"
											],
											"path": [
												"users",
												"user1",
												"reviews"
											]
										}
									},
									"response": []
								},
								{
									"name": "Check status of a review I posted",
									"protocolProfileBehavior": {
										"disableBodyPruning": true
									},
									"request": {
										"method": "GET",
										"header": [],
										"body": {
											"mode": "raw",
											"raw": "{\"username\": \"user1\" , \"password\": \"1234\"}",
											"options": {
												"raw": {
													"language": "json"
												}
											}
										},
										"url": {
											"raw": "{{apiURL}}/reviews/R14",
											"host": [
												"{{apiURL}}"
											],
											"path": [
												"reviews",
												"R14"
											]
										}
									},
									"response": []
								},
								{
									"name": "Create new review for a product",
									"event": [
										{
											"listen": "test",
											"script": {
												"exec": [
													"pm.test(\"Status code is 202\", function () {",
													"    pm.response.to.have.status(202);",
													"});",
													"",
													"",
													"pm.test(\"Check resource at Location\", function () {",
													"    var location = pm.response.headers.get(\"location\");",
													"",
													"    pm.sendRequest({ url: location }, function (err, res) {",
													"        var jsonData = res.json();",
													"        console.log(jsonData);",
													"        pm.expect(jsonData.username).to.eql(\"user1\");",
													"        pm.expect(jsonData.review).to.eql(\"Terrible.\");",
													"        pm.expect(jsonData.product).to.eql(\"P1\");",
													"        pm.expect(jsonData.rating).to.eql(0);",
													"        pm.expect(jsonData.status).to.eql(\"pending\");",
													"    })",
													"});"
												],
												"type": "text/javascript"
											}
										},
										{
											"listen": "prerequest",
											"script": {
												"exec": [
													"var request = {",
													"    url: pm.variables.get(\"apiURL\") + \"/auth/basic\",",
													"    method: \"POST\",",
													"    header: 'Content-Type:application/json',",
													"    body: {",
													"        mode: 'raw',",
													"        raw: JSON.stringify({ username: \"user1\", password: \"1234\" })",
													"    },",
													"    json: true",
													"}",
													"",
													"pm.sendRequest(request, function (err, res) {})",
													""
												],
												"type": "text/javascript"
											}
										}
									],
									"request": {
										"method": "POST",
										"header": [],
										"body": {
											"mode": "raw",
											"raw": "{\n    \"description\": \"Terrible.\",\n    \"product\": \"P1\",\n    \"rating\": 0\n}",
											"options": {
												"raw": {
													"language": "json"
												}
											}
										},
										"url": {
											"raw": "{{apiURL}}/reviews",
											"host": [
												"{{apiURL}}"
											],
											"path": [
												"reviews"
											]
										}
									},
									"response": []
								},
								{
									"name": "Report review",
									"event": [
										{
											"listen": "prerequest",
											"script": {
												"exec": [
													"var request = {",
													"    url: pm.variables.get(\"apiURL\") + \"/auth/basic\",",
													"    method: \"POST\",",
													"    header: 'Content-Type:application/json',",
													"    body: {",
													"        mode: 'raw',",
													"        raw: JSON.stringify({ username: \"user2\", password: \"1234\" })",
													"    },",
													"    json: true",
													"}",
													"",
													"pm.sendRequest(request, function (err, res) {})",
													""
												],
												"type": "text/javascript"
											}
										},
										{
											"listen": "test",
											"script": {
												"exec": [
													"pm.test(\"Status code is 200\", function () {",
													"    pm.response.to.have.status(200);",
													"});",
													"",
													"pm.test(\"Body is as expected\", function () {",
													"    var jsonData = pm.response.json();",
													"",
													"    pm.expect(jsonData.id).to.eql(\"R5\");",
													"    pm.expect(jsonData.username).to.eql(\"user1\");",
													"    pm.expect(jsonData.review).to.eql(\"Some .descriptionzz here5\");",
													"    pm.expect(jsonData.product).to.eql(\"P1\");",
													"    pm.expect(jsonData.rating).to.eql(\"3.5\");",
													"    pm.expect(jsonData.votes).to.eql(\"0\");",
													"    pm.expect(jsonData.status).to.eql(\"reported\");",
													"    pm.expect(jsonData).to.have.property('createdOn');",
													"    pm.expect(jsonData).to.have.property('updatedOn');",
													"    pm.expect(jsonData).to.have.property('publishingDate');",
													"",
													"    pm.expect(jsonData._links[\"psidi:product\"].href).to.eql(\"http://localhost:2999/products/P1\");",
													"    pm.expect(jsonData._links[\"self\"].href).to.eql(\"http://localhost:2999/reviews/R5\");",
													"});"
												],
												"type": "text/javascript"
											}
										}
									],
									"request": {
										"method": "POST",
										"header": [
											{
												"key": "If-Match",
												"type": "text",
												"value": "1"
											}
										],
										"body": {
											"mode": "raw",
											"raw": "{\r\n  \"action\": \"report\"\r\n}",
											"options": {
												"raw": {
													"language": "json"
												}
											}
										},
										"url": {
											"raw": "{{apiURL}}/reviews/R5",
											"host": [
												"{{apiURL}}"
											],
											"path": [
												"reviews",
												"R5"
											]
										}
									},
									"response": []
								},
								{
									"name": "Withdraw a review",
									"event": [
										{
											"listen": "prerequest",
											"script": {
												"exec": [
													"var request = {",
													"    url: pm.variables.get(\"apiURL\") + \"/auth/basic\",",
													"    method: \"POST\",",
													"    header: 'Content-Type:application/json',",
													"    body: {",
													"        mode: 'raw',",
													"        raw: JSON.stringify({ username: \"user3\", password: \"1234\" })",
													"    },",
													"    json: true",
													"}",
													"",
													"pm.sendRequest(request, function (err, res) {})",
													""
												],
												"type": "text/javascript"
											}
										},
										{
											"listen": "test",
											"script": {
												"exec": [
													"pm.test(\"Status code is 200\", function () {",
													"    pm.response.to.have.status(200);",
													"});"
												],
												"type": "text/javascript"
											}
										}
									],
									"request": {
										"method": "DELETE",
										"header": [
											{
												"key": "If-Match",
												"type": "text",
												"value": "1"
											}
										],
										"body": {
											"mode": "raw",
											"raw": "{\r\n  \"action\": \"report\"\r\n}",
											"options": {
												"raw": {
													"language": "json"
												}
											}
										},
										"url": {
											"raw": "{{apiURL}}/reviews/R13",
											"host": [
												"{{apiURL}}"
											],
											"path": [
												"reviews",
												"R13"
											]
										}
									},
									"response": []
								},
								{
									"name": "Vote for a review",
									"event": [
										{
											"listen": "prerequest",
											"script": {
												"exec": [
													"var request = {",
													"    url: pm.variables.get(\"apiURL\") + \"/auth/basic\",",
													"    method: \"POST\",",
													"    header: 'Content-Type:application/json',",
													"    body: {",
													"        mode: 'raw',",
													"        raw: JSON.stringify({ username: \"user1\", password: \"1234\" })",
													"    },",
													"    json: true",
													"}",
													"",
													"pm.sendRequest(request, function (err, res) {})",
													"",
													"",
													"var request = {",
													"    url: pm.variables.get(\"apiURL\") + \"/reviews/R10\",",
													"    method: \"GET\",",
													"    header: 'Content-Type:application/json',",
													"    json: true",
													"}",
													"",
													"pm.sendRequest(request, function (err, res) {})",
													""
												],
												"type": "text/javascript"
											}
										},
										{
											"listen": "test",
											"script": {
												"exec": [
													"pm.test(\"Status code is 200\", function () {",
													"    pm.response.to.have.status(200);",
													"});",
													"",
													"pm.test(\"Body is as expected\", function () {",
													"    var jsonData = pm.response.json();",
													"",
													"    pm.expect(jsonData.id).to.eql(\"R10\");",
													"    pm.expect(jsonData.username).to.eql(\"user2\");",
													"    pm.expect(jsonData.review).to.eql(\"Some .descriptionzz here10\");",
													"    pm.expect(jsonData.product).to.eql(\"P1\");",
													"    pm.expect(jsonData.rating).to.eql(\"3.5\");",
													"    pm.expect(jsonData.status).to.eql(\"published\");",
													"    pm.expect(jsonData.votes).to.eql(\"1\");",
													"    pm.expect(jsonData).to.have.property('createdOn');",
													"    pm.expect(jsonData).to.have.property('updatedOn');",
													"    pm.expect(jsonData).to.have.property('publishingDate');",
													"",
													"    pm.expect(jsonData._links[\"psidi:product\"].href).to.eql(\"http://localhost:2999/products/P1\");",
													"    pm.expect(jsonData._links[\"psidi:vote\"].href).to.eql(\"http://localhost:2999/reviews/R10\");",
													"    pm.expect(jsonData._links[\"psidi:report\"].href).to.eql(\"http://localhost:2999/reviews/R10\");",
													"    pm.expect(jsonData._links[\"self\"].href).to.eql(\"http://localhost:2999/reviews/R10\");",
													"    pm.expect(jsonData._links[\"curies\"][0].href).to.eql(\"http://localhost:2999/docs\");",
													"    pm.expect(jsonData._links[\"curies\"][0].name).to.eql(\"psidi\");",
													"});"
												],
												"type": "text/javascript"
											}
										}
									],
									"request": {
										"method": "POST",
										"header": [
											{
												"key": "If-Match",
												"type": "text",
												"value": "1"
											}
										],
										"body": {
											"mode": "raw",
											"raw": "{\r\n  \"action\": \"vote\"\r\n}",
											"options": {
												"raw": {
													"language": "json"
												}
											}
										},
										"url": {
											"raw": "{{apiURL}}/reviews/R10",
											"host": [
												"{{apiURL}}"
											],
											"path": [
												"reviews",
												"R10"
											]
										}
									},
									"response": []
								}
							]
						},
						{
							"name": "moderator",
							"item": [
								{
									"name": "Approve review",
									"event": [
										{
											"listen": "prerequest",
											"script": {
												"exec": [
													"var request = {",
													"    url: pm.variables.get(\"apiURL\") + \"/auth/basic\",",
													"    method: \"POST\",",
													"    header: 'Content-Type:application/json',",
													"    body: {",
													"        mode: 'raw',",
													"        raw: JSON.stringify({ username: \"user6\", password: \"1234\" })",
													"    },",
													"    json: true",
													"}",
													"",
													"pm.sendRequest(request, function (err, res) {})",
													""
												],
												"type": "text/javascript"
											}
										},
										{
											"listen": "test",
											"script": {
												"exec": [
													"pm.test(\"Status code is 200\", function () {",
													"    pm.response.to.have.status(200);",
													"});",
													"",
													"pm.test(\"Body is as expected\", function () {",
													"    var jsonData = pm.response.json();",
													"",
													"    pm.expect(jsonData.id).to.eql(\"R3\");",
													"    pm.expect(jsonData.username).to.eql(\"user2\");",
													"    pm.expect(jsonData.review).to.eql(\"Some .descriptionzz here3\");",
													"    pm.expect(jsonData.product).to.eql(\"P1\");",
													"    pm.expect(jsonData.rating).to.eql(\"3.5\");",
													"    pm.expect(jsonData.status).to.eql(\"published\");",
													"    pm.expect(jsonData.votes).to.eql(\"0\");",
													"    pm.expect(jsonData).to.have.property('createdOn');",
													"    pm.expect(jsonData).to.have.property('updatedOn');",
													"    pm.expect(jsonData).to.have.property('fun_fact');",
													"    pm.expect(jsonData).to.have.property('publishingDate');",
													"",
													"    pm.expect(jsonData._links[\"self\"].href).to.eql(\"http://localhost:2999/reviews/R3\");",
													"    pm.expect(jsonData._links[\"psidi:product\"].href).to.eql(\"http://localhost:2999/products/P1\");",
													"    pm.expect(jsonData._links[\"curies\"][0].href).to.eql(\"http://localhost:2999/docs\");",
													"    pm.expect(jsonData._links[\"curies\"][0].name).to.eql(\"psidi\");",
													"});"
												],
												"type": "text/javascript"
											}
										}
									],
									"request": {
										"method": "POST",
										"header": [
											{
												"key": "If-Match",
												"type": "text",
												"value": "1"
											}
										],
										"body": {
											"mode": "raw",
											"raw": "{\r\n  \"action\": \"approve\"\r\n}",
											"options": {
												"raw": {
													"language": "json"
												}
											}
										},
										"url": {
											"raw": "{{apiURL}}/reviews/R3",
											"host": [
												"{{apiURL}}"
											],
											"path": [
												"reviews",
												"R3"
											]
										}
									},
									"response": []
								},
								{
									"name": "Reject a reported review",
									"event": [
										{
											"listen": "prerequest",
											"script": {
												"exec": [
													"var request = {",
													"    url: pm.variables.get(\"apiURL\") + \"/auth/basic\",",
													"    method: \"POST\",",
													"    header: 'Content-Type:application/json',",
													"    body: {",
													"        mode: 'raw',",
													"        raw: JSON.stringify({ username: \"user6\", password: \"1234\" })",
													"    },",
													"    json: true",
													"}",
													"",
													"pm.sendRequest(request, function (err, res) {})",
													""
												],
												"type": "text/javascript"
											}
										},
										{
											"listen": "test",
											"script": {
												"exec": [
													"pm.test(\"Status code is 200\", function () {",
													"    pm.response.to.have.status(200);",
													"});",
													"",
													"pm.test(\"Body is as expected\", function () {",
													"    var jsonData = pm.response.json();",
													"",
													"    pm.expect(jsonData.id).to.eql(\"R5\");",
													"    pm.expect(jsonData.username).to.eql(\"user1\");",
													"    pm.expect(jsonData.review).to.eql(\"Some .descriptionzz here5\");",
													"    pm.expect(jsonData.product).to.eql(\"P1\");",
													"    pm.expect(jsonData.rating).to.eql(\"3.5\");",
													"    pm.expect(jsonData.status).to.eql(\"rejected\");",
													"    pm.expect(jsonData.votes).to.eql(\"0\");",
													"    pm.expect(jsonData).to.have.property('createdOn');",
													"    pm.expect(jsonData).to.have.property('updatedOn');",
													"    pm.expect(jsonData).to.have.property('publishingDate');",
													"",
													"    pm.expect(jsonData._links[\"self\"].href).to.eql(\"http://localhost:2999/reviews/R5\");",
													"    pm.expect(jsonData._links[\"psidi:product\"].href).to.eql(\"http://localhost:2999/products/P1\");",
													"    pm.expect(jsonData._links[\"curies\"][0].href).to.eql(\"http://localhost:2999/docs\");",
													"    pm.expect(jsonData._links[\"curies\"][0].name).to.eql(\"psidi\");",
													"});"
												],
												"type": "text/javascript"
											}
										}
									],
									"request": {
										"method": "POST",
										"header": [
											{
												"key": "If-Match",
												"type": "text",
												"value": "2"
											}
										],
										"body": {
											"mode": "raw",
											"raw": "{\r\n  \"action\": \"reject\"\r\n}",
											"options": {
												"raw": {
													"language": "json"
												}
											}
										},
										"url": {
											"raw": "{{apiURL}}/reviews/R5",
											"host": [
												"{{apiURL}}"
											],
											"path": [
												"reviews",
												"R5"
											],
											"query": [
												{
													"key": "if-match",
													"value": "",
													"disabled": true
												}
											]
										}
									},
									"response": []
								},
								{
									"name": "Get all pending reviews",
									"event": [
										{
											"listen": "prerequest",
											"script": {
												"exec": [
													"var request = {",
													"    url: pm.variables.get(\"apiURL\") + \"/auth/basic\",",
													"    method: \"POST\",",
													"    header: 'Content-Type:application/json',",
													"    body: {",
													"        mode: 'raw',",
													"        raw: JSON.stringify({ username: \"user6\", password: \"1234\" })",
													"    },",
													"    json: true",
													"}",
													"",
													"pm.sendRequest(request, function (err, res) {})",
													""
												],
												"type": "text/javascript"
											}
										},
										{
											"listen": "test",
											"script": {
												"exec": [
													"pm.test(\"Status code is 200\", function () {",
													"    pm.response.to.have.status(200);",
													"});",
													"",
													"pm.test(\"Body is as expected\", function () {",
													"    var jsonData = pm.response.json();",
													"",
													"    pm.expect(jsonData._links.self.href).to.eql(\"http://localhost:2999/reviews?status=pending&page=1&limit=3\");",
													"    pm.expect(jsonData._links.curies[0].name).to.eql(\"psidi\");",
													"    pm.expect(jsonData._links.curies[0].href).to.eql(\"http://localhost:2999/docs\");",
													"    pm.expect(jsonData._links.find.href).to.eql(\"http://localhost:2999/reviews/{?id}\");",
													"    pm.expect(jsonData._links.find.templated).to.eql(true);",
													"    pm.expect(jsonData._links.next.href).to.eql(\"http://localhost:2999/reviews?page=2&limit=3\");",
													"    pm.expect(jsonData._links.item[0].href).to.eql(\"http://localhost:2999/reviews/R1\");",
													"    pm.expect(jsonData._links.item[1].href).to.eql(\"http://localhost:2999/reviews/R2\");",
													"    pm.expect(jsonData._links.item[2].href).to.eql(\"http://localhost:2999/reviews/R6\");",
													"",
													"    pm.expect(jsonData._embedded.item[0].id).to.eql(\"R1\");",
													"    pm.expect(jsonData._embedded.item[0].username).to.eql(\"user1\");",
													"    pm.expect(jsonData._embedded.item[0].review).to.eql(\"Some .descriptionzz here1\");",
													"    pm.expect(jsonData._embedded.item[0].rating).to.eql(\"5\");",
													"    pm.expect(jsonData._embedded.item[0].votes).to.eql(\"9\");",
													"    pm.expect(jsonData._embedded.item[0].product).to.eql(\"P1\");",
													"    pm.expect(jsonData._embedded.item[0].status).to.eql(\"pending\");",
													"    pm.expect(jsonData._embedded.item[0]._links.self.href).to.eql(\"http://localhost:2999/reviews/R1\");",
													"    pm.expect(jsonData._embedded.item[0]._links[\"psidi:product\"].href).to.eql(\"http://localhost:2999/products/P1\");",
													"    pm.expect(jsonData._embedded.item[0]._links[\"psidi:approve\"].href).to.eql(\"http://localhost:2999/reviews/R1\");",
													"    pm.expect(jsonData._embedded.item[0]._links[\"psidi:reject\"].href).to.eql(\"http://localhost:2999/reviews/R1\");",
													"",
													"    pm.expect(jsonData._embedded.item[1].id).to.eql(\"R2\");",
													"    pm.expect(jsonData._embedded.item[1].username).to.eql(\"user2\");",
													"    pm.expect(jsonData._embedded.item[1].review).to.eql(\"Some .descriptionzz here2\");",
													"    pm.expect(jsonData._embedded.item[1].rating).to.eql(\"3.5\");",
													"    pm.expect(jsonData._embedded.item[1].votes).to.eql(\"0\");",
													"    pm.expect(jsonData._embedded.item[1].product).to.eql(\"P2\");",
													"    pm.expect(jsonData._embedded.item[1].status).to.eql(\"pending\");",
													"    pm.expect(jsonData._embedded.item[1]._links.self.href).to.eql(\"http://localhost:2999/reviews/R2\");",
													"    pm.expect(jsonData._embedded.item[1]._links[\"psidi:product\"].href).to.eql(\"http://localhost:2999/products/P2\");",
													"    pm.expect(jsonData._embedded.item[1]._links[\"psidi:approve\"].href).to.eql(\"http://localhost:2999/reviews/R2\");",
													"    pm.expect(jsonData._embedded.item[1]._links[\"psidi:reject\"].href).to.eql(\"http://localhost:2999/reviews/R2\");",
													"",
													"    pm.expect(jsonData._embedded.item[2].id).to.eql(\"R6\");",
													"    pm.expect(jsonData._embedded.item[2].username).to.eql(\"user1\");",
													"    pm.expect(jsonData._embedded.item[2].review).to.eql(\"Some .descriptionzz here6\");",
													"    pm.expect(jsonData._embedded.item[2].rating).to.eql(\"3.5\");",
													"    pm.expect(jsonData._embedded.item[2].votes).to.eql(\"0\");",
													"    pm.expect(jsonData._embedded.item[2].product).to.eql(\"P2\");",
													"    pm.expect(jsonData._embedded.item[2].status).to.eql(\"pending\");",
													"    pm.expect(jsonData._embedded.item[2]._links.self.href).to.eql(\"http://localhost:2999/reviews/R6\");",
													"    pm.expect(jsonData._embedded.item[2]._links[\"psidi:product\"].href).to.eql(\"http://localhost:2999/products/P2\");",
													"    pm.expect(jsonData._embedded.item[2]._links[\"psidi:approve\"].href).to.eql(\"http://localhost:2999/reviews/R6\");",
													"    pm.expect(jsonData._embedded.item[2]._links[\"psidi:reject\"].href).to.eql(\"http://localhost:2999/reviews/R6\");",
													"",
													"});",
													"",
													"",
													"pm.test(\"Next page is as expected\", function () {",
													"    pm.sendRequest({ url: pm.variables.get(\"apiURL\") + pm.request.url.getPath() + \"?status=pending&page=2&limit=3\" }",
													"        , function (err, res) {",
													"            var jsonData = res.json();",
													"",
													"            pm.expect(jsonData._links.self.href).to.eql(\"http://localhost:2999/reviews?status=pending&page=2&limit=3\");",
													"            pm.expect(jsonData._links.curies[0].name).to.eql(\"psidi\");",
													"            pm.expect(jsonData._links.curies[0].href).to.eql(\"http://localhost:2999/docs\");",
													"            pm.expect(jsonData._links.find.href).to.eql(\"http://localhost:2999/reviews/{?id}\");",
													"            pm.expect(jsonData._links.find.templated).to.eql(true);",
													"            pm.expect(jsonData._links.prev.href).to.eql(\"http://localhost:2999/reviews?page=1&limit=3\");",
													"            pm.expect(jsonData._links.item[0].href).to.eql(\"http://localhost:2999/reviews/R9\");",
													"            pm.expect(jsonData._links.item[1].href).to.eql(\"http://localhost:2999/reviews/R14\");",
													"",
													"            pm.expect(jsonData._embedded.item[0].id).to.eql(\"R9\");",
													"            pm.expect(jsonData._embedded.item[0].username).to.eql(\"user2\");",
													"            pm.expect(jsonData._embedded.item[0].review).to.eql(\"Some .descriptionzz here9\");",
													"            pm.expect(jsonData._embedded.item[0].rating).to.eql(\"3.5\");",
													"            pm.expect(jsonData._embedded.item[0].votes).to.eql(\"0\");",
													"            pm.expect(jsonData._embedded.item[0].product).to.eql(\"P3\");",
													"            pm.expect(jsonData._embedded.item[0].status).to.eql(\"pending\");",
													"            pm.expect(jsonData._embedded.item[0]._links.self.href).to.eql(\"http://localhost:2999/reviews/R9\");",
													"            pm.expect(jsonData._embedded.item[0]._links[\"psidi:product\"].href).to.eql(\"http://localhost:2999/products/P3\");",
													"            pm.expect(jsonData._embedded.item[0]._links[\"psidi:approve\"].href).to.eql(\"http://localhost:2999/reviews/R9\");",
													"            pm.expect(jsonData._embedded.item[0]._links[\"psidi:reject\"].href).to.eql(\"http://localhost:2999/reviews/R9\");",
													"",
													"            pm.expect(jsonData._embedded.item[1].id).to.eql(\"R14\");",
													"            pm.expect(jsonData._embedded.item[1].username).to.eql(\"user1\");",
													"            pm.expect(jsonData._embedded.item[1].review).to.eql(\"Terrible.\");",
													"            pm.expect(jsonData._embedded.item[1].rating).to.eql(0);",
													"            pm.expect(jsonData._embedded.item[1].votes).to.eql(\"0\");",
													"            pm.expect(jsonData._embedded.item[1].product).to.eql(\"P1\");",
													"            pm.expect(jsonData._embedded.item[1].status).to.eql(\"pending\");",
													"            pm.expect(jsonData._embedded.item[1]._links.self.href).to.eql(\"http://localhost:2999/reviews/R14\");",
													"            pm.expect(jsonData._embedded.item[1]._links[\"psidi:product\"].href).to.eql(\"http://localhost:2999/products/P1\");",
													"            pm.expect(jsonData._embedded.item[1]._links[\"psidi:approve\"].href).to.eql(\"http://localhost:2999/reviews/R14\");",
													"            pm.expect(jsonData._embedded.item[1]._links[\"psidi:reject\"].href).to.eql(\"http://localhost:2999/reviews/R14\");",
													"",
													"        })",
													"});"
												],
												"type": "text/javascript"
											}
										}
									],
									"request": {
										"method": "GET",
										"header": [],
										"url": {
											"raw": "{{apiURL}}/reviews?status=pending&page=1&limit=3",
											"host": [
												"{{apiURL}}"
											],
											"path": [
												"reviews"
											],
											"query": [
												{
													"key": "status",
													"value": "pending"
												},
												{
													"key": "page",
													"value": "1"
												},
												{
													"key": "limit",
													"value": "3"
												}
											]
										}
									},
									"response": []
								},
								{
									"name": "Get all reported reviews",
									"event": [
										{
											"listen": "prerequest",
											"script": {
												"exec": [
													"var request = {",
													"    url: pm.variables.get(\"apiURL\") + \"/auth/basic\",",
													"    method: \"POST\",",
													"    header: 'Content-Type:application/json',",
													"    body: {",
													"        mode: 'raw',",
													"        raw: JSON.stringify({ username: \"user6\", password: \"1234\" })",
													"    },",
													"    json: true",
													"}",
													"",
													"pm.sendRequest(request, function (err, res) {})",
													""
												],
												"type": "text/javascript"
											}
										},
										{
											"listen": "test",
											"script": {
												"exec": [
													"pm.test(\"Status code is 200\", function () {",
													"    pm.response.to.have.status(200);",
													"});",
													"",
													"pm.test(\"Body is as expected\", function () {",
													"    var jsonData = pm.response.json();",
													"",
													"    pm.expect(jsonData._links.self.href).to.eql(\"http://localhost:2999/reviews?status=reported\");",
													"    pm.expect(jsonData._links.curies[0].name).to.eql(\"psidi\");",
													"    pm.expect(jsonData._links.curies[0].href).to.eql(\"http://localhost:2999/docs\");",
													"    pm.expect(jsonData._links.find.href).to.eql(\"http://localhost:2999/reviews/{?id}\");",
													"    pm.expect(jsonData._links.find.templated).to.eql(true);",
													"    pm.expect(jsonData._links).to.have.property('item');",
													"",
													"//    pm.expect(jsonData._links.item[0].href).to.eql(\"http://localhost:2999/reviews/R5\");",
													"",
													"//    pm.expect(jsonData._embedded.item[0].id).to.eql(\"R5\");",
													"//    pm.expect(jsonData._embedded.item[0].username).to.eql(\"user1\");",
													"//    pm.expect(jsonData._embedded.item[0].review).to.eql(\"Some .descriptionzz here5\");",
													"//    pm.expect(jsonData._embedded.item[0].rating).to.eql(\"3.5\");",
													"//    pm.expect(jsonData._embedded.item[0].votes).to.eql(\"0\");",
													"//    pm.expect(jsonData._embedded.item[0].product).to.eql(\"P1\");",
													"//    pm.expect(jsonData._embedded.item[0].status).to.eql(\"reported\");",
													"//    pm.expect(jsonData._embedded.item[0]._links.self.href).to.eql(\"http://localhost:2999/reviews/R5\");",
													"//   pm.expect(jsonData._embedded.item[0]._links[\"psidi:product\"].href).to.eql(\"http://localhost:2999/products/P1\");",
													"//   pm.expect(jsonData._embedded.item[0]._links[\"psidi:approve\"].href).to.eql(\"http://localhost:2999/reviews/R5\");",
													"//   pm.expect(jsonData._embedded.item[0]._links[\"psidi:reject\"].href).to.eql(\"http://localhost:2999/reviews/R5\");",
													"});"
												],
												"type": "text/javascript"
											}
										}
									],
									"request": {
										"method": "GET",
										"header": [],
										"url": {
											"raw": "{{apiURL}}/reviews?status=reported",
											"host": [
												"{{apiURL}}"
											],
											"path": [
												"reviews"
											],
											"query": [
												{
													"key": "status",
													"value": "reported"
												}
											]
										}
									},
									"response": []
								}
							]
						},
						{
							"name": "Get all reviews",
							"protocolProfileBehavior": {
								"disableBodyPruning": true
							},
							"request": {
								"method": "GET",
								"header": [],
								"body": {
									"mode": "raw",
									"raw": ""
								},
								"url": {
									"raw": "{{apiURL}}/reviews?page=1&limit=2",
									"host": [
										"{{apiURL}}"
									],
									"path": [
										"reviews"
									],
									"query": [
										{
											"key": "page",
											"value": "1"
										},
										{
											"key": "limit",
											"value": "2"
										}
									]
								}
							},
							"response": []
						},
						{
							"name": "Check a specific review",
							"event": [
								{
									"listen": "prerequest",
									"script": {
										"exec": [
											"var request = {",
											"    url: pm.variables.get(\"apiURL\") + \"/auth/basic\",",
											"    method: \"POST\",",
											"    header: 'Content-Type:application/json',",
											"    body: {",
											"        mode: 'raw',",
											"        raw: JSON.stringify({ username: \"user1\", password: \"1234\" })",
											"    },",
											"    json: true",
											"}",
											"",
											"pm.sendRequest(request, function (err, res) {})",
											""
										],
										"type": "text/javascript"
									}
								},
								{
									"listen": "test",
									"script": {
										"exec": [
											"pm.test(\"Status code is 200\", function () {",
											"    pm.response.to.have.status(200);",
											"});",
											"",
											"pm.test(\"Body is as expected\", function () {",
											"    var jsonData = pm.response.json();",
											"",
											"    pm.expect(jsonData.id).to.eql(\"R6\");",
											"    pm.expect(jsonData.username).to.eql(\"user1\");",
											"    pm.expect(jsonData.review).to.eql(\"Some .descriptionzz here6\");",
											"    pm.expect(jsonData.rating).to.eql(\"3.5\");",
											"    pm.expect(jsonData.status).to.eql(\"pending\");",
											"    pm.expect(jsonData._links[\"self\"].href).to.eql(\"http://localhost:2999/reviews/R6\");",
											"    pm.expect(jsonData._links[\"curies\"][0].href).to.eql(\"http://localhost:2999/docs\");",
											"    pm.expect(jsonData._links[\"curies\"][0].name).to.eql(\"psidi\");",
											"    pm.expect(jsonData._links[\"psidi:product\"].href).to.eql(\"http://localhost:2999/products/P2\");",
											"    pm.expect(jsonData._links[\"psidi:delete\"].href).to.eql(\"http://localhost:2999/reviews/R6\");",
											"    ",
											"});"
										],
										"type": "text/javascript"
									}
								}
							],
							"request": {
								"method": "GET",
								"header": [],
								"url": {
									"raw": "{{apiURL}}/reviews/R6",
									"host": [
										"{{apiURL}}"
									],
									"path": [
										"reviews",
										"R6"
									]
								}
							},
							"response": []
						},
						{
							"name": "Get all reviews of a specific product",
							"event": [
								{
									"listen": "test",
									"script": {
										"exec": [
											"pm.test(\"Status code is 200\", function () {",
											"    pm.response.to.have.status(200);",
											"});",
											"",
											"pm.test(\"Body is as expected\", function () {",
											"    var jsonData = pm.response.json();",
											"",
											"    pm.expect(jsonData._links.self.href).to.eql(\"http://localhost:2999/products/P1/reviews?page=1&limit=2\");",
											"    pm.expect(jsonData._links.curies[0].name).to.eql(\"psidi\");",
											"    pm.expect(jsonData._links.curies[0].href).to.eql(\"http://localhost:2999/docs\");",
											"    pm.expect(jsonData._links.find.href).to.eql(\"http://localhost:2999/reviews/{?id}\");",
											"    pm.expect(jsonData._links.find.templated).to.eql(true);",
											"    pm.expect(jsonData._links.next.href).to.eql(\"http://localhost:2999/products/P1/reviews?page=2&limit=2\");",
											"    pm.expect(jsonData._links.item[0].href).to.eql(\"http://localhost:2999/reviews/R3\");",
											"    pm.expect(jsonData._links.item[1].href).to.eql(\"http://localhost:2999/reviews/R11\");",
											"",
											"    pm.expect(jsonData._embedded.item[0].id).to.eql(\"R3\");",
											"    pm.expect(jsonData._embedded.item[0].username).to.eql(\"user2\");",
											"    pm.expect(jsonData._embedded.item[0].review).to.eql(\"Some .descriptionzz here3\");",
											"    pm.expect(jsonData._embedded.item[0].rating).to.eql(\"3.5\");",
											"    pm.expect(jsonData._embedded.item[0].votes).to.eql(\"0\");",
											"    pm.expect(jsonData._embedded.item[0].product).to.eql(\"P1\");",
											"    pm.expect(jsonData._embedded.item[0].status).to.eql(\"published\");",
											"    pm.expect(jsonData._embedded.item[0]._links.self.href).to.eql(\"http://localhost:2999/reviews/R3\");",
											"    pm.expect(jsonData._embedded.item[0]._links[\"psidi:product\"].href).to.eql(\"http://localhost:2999/products/P1\");",
											"",
											"    pm.expect(jsonData._embedded.item[1].id).to.eql(\"R11\");",
											"    pm.expect(jsonData._embedded.item[1].username).to.eql(\"user3\");",
											"    pm.expect(jsonData._embedded.item[1].review).to.eql(\"MMMMMM\");",
											"    pm.expect(jsonData._embedded.item[1].rating).to.eql(\"3.5\");",
											"    pm.expect(jsonData._embedded.item[1].votes).to.eql(\"0\");",
											"    pm.expect(jsonData._embedded.item[1].product).to.eql(\"P1\");",
											"    pm.expect(jsonData._embedded.item[1].status).to.eql(\"published\");",
											"    pm.expect(jsonData._embedded.item[1]._links.self.href).to.eql(\"http://localhost:2999/reviews/R11\");",
											"    pm.expect(jsonData._embedded.item[1]._links[\"psidi:product\"].href).to.eql(\"http://localhost:2999/products/P1\");",
											"",
											"});",
											"",
											"",
											"pm.test(\"Next page is as expected\", function () {",
											"    pm.sendRequest({ url: pm.variables.get(\"apiURL\") + pm.request.url.getPath() + \"?page=2&limit=2\" }",
											"        , function (err, res) {",
											"            var jsonData = res.json();",
											"",
											"            pm.expect(jsonData._links.self.href).to.eql(\"http://localhost:2999/products/P1/reviews?page=2&limit=2\");",
											"            pm.expect(jsonData._links.curies[0].name).to.eql(\"psidi\");",
											"            pm.expect(jsonData._links.curies[0].href).to.eql(\"http://localhost:2999/docs\");",
											"            pm.expect(jsonData._links.find.href).to.eql(\"http://localhost:2999/reviews/{?id}\");",
											"            pm.expect(jsonData._links.find.templated).to.eql(true);",
											"            pm.expect(jsonData._links.prev.href).to.eql(\"http://localhost:2999/products/P1/reviews?page=1&limit=2\");",
											"            pm.expect(jsonData._links.item[0].href).to.eql(\"http://localhost:2999/reviews/R10\");",
											"            pm.expect(jsonData._links.item[1].href).to.eql(\"http://localhost:2999/reviews/R12\");",
											"",
											"            pm.expect(jsonData._embedded.item[0].id).to.eql(\"R10\");",
											"            pm.expect(jsonData._embedded.item[0].username).to.eql(\"user2\");",
											"            pm.expect(jsonData._embedded.item[0].review).to.eql(\"Some .descriptionzz here10\");",
											"            pm.expect(jsonData._embedded.item[0].rating).to.eql(\"3.5\");",
											"            pm.expect(jsonData._embedded.item[0].votes).to.eql(\"1\");",
											"            pm.expect(jsonData._embedded.item[0].product).to.eql(\"P1\");",
											"            pm.expect(jsonData._embedded.item[0].status).to.eql(\"published\");",
											"            pm.expect(jsonData._embedded.item[0]._links.self.href).to.eql(\"http://localhost:2999/reviews/R10\");",
											"            pm.expect(jsonData._embedded.item[0]._links[\"psidi:product\"].href).to.eql(\"http://localhost:2999/products/P1\");",
											"",
											"            pm.expect(jsonData._embedded.item[1].id).to.eql(\"R12\");",
											"            pm.expect(jsonData._embedded.item[1].username).to.eql(\"user4\");",
											"            pm.expect(jsonData._embedded.item[1].review).to.eql(\"I really don't like this product. i Mean REalLyy\");",
											"            pm.expect(jsonData._embedded.item[1].rating).to.eql(\"1.5\");",
											"            pm.expect(jsonData._embedded.item[1].product).to.eql(\"P1\");",
											"            pm.expect(jsonData._embedded.item[1].status).to.eql(\"published\");",
											"            pm.expect(jsonData._embedded.item[1]._links.self.href).to.eql(\"http://localhost:2999/reviews/R12\");",
											"            pm.expect(jsonData._embedded.item[1]._links[\"psidi:product\"].href).to.eql(\"http://localhost:2999/products/P1\");",
											"        })",
											"});",
											""
										],
										"type": "text/javascript"
									}
								},
								{
									"listen": "prerequest",
									"script": {
										"exec": [
											"const jar = pm.cookies.jar();",
											"",
											"jar.clear(\"localhost:2999\", function (error) {",
											"    console.log(\"Cleared cookies\");",
											"});"
										],
										"type": "text/javascript"
									}
								}
							],
							"request": {
								"method": "GET",
								"header": [],
								"url": {
									"raw": "{{apiURL}}/products/P1/reviews?page=1&limit=2",
									"host": [
										"{{apiURL}}"
									],
									"path": [
										"products",
										"P1",
										"reviews"
									],
									"query": [
										{
											"key": "page",
											"value": "1"
										},
										{
											"key": "limit",
											"value": "2"
										}
									]
								}
							},
							"response": []
						},
						{
							"name": "Get all reviews of a specific product (review owner)",
							"event": [
								{
									"listen": "test",
									"script": {
										"exec": [
											"pm.test(\"Status code is 200\", function () {",
											"    pm.response.to.have.status(200);",
											"});",
											"",
											"pm.test(\"Body is as expected\", function () {",
											"    var jsonData = pm.response.json();",
											"",
											"    pm.expect(jsonData._links.self.href).to.eql(\"http://localhost:2999/products/P1/reviews?page=1&limit=2\");",
											"    pm.expect(jsonData._links.curies[0].name).to.eql(\"psidi\");",
											"    pm.expect(jsonData._links.curies[0].href).to.eql(\"http://localhost:2999/docs\");",
											"    pm.expect(jsonData._links.find.href).to.eql(\"http://localhost:2999/reviews/{?id}\");",
											"    pm.expect(jsonData._links.find.templated).to.eql(true);",
											"    pm.expect(jsonData._links.next.href).to.eql(\"http://localhost:2999/products/P1/reviews?page=2&limit=2\");",
											"    pm.expect(jsonData._links.item[0].href).to.eql(\"http://localhost:2999/reviews/R3\");",
											"    pm.expect(jsonData._links.item[1].href).to.eql(\"http://localhost:2999/reviews/R11\");",
											"",
											"    pm.expect(jsonData._embedded.item[0].id).to.eql(\"R3\");",
											"    pm.expect(jsonData._embedded.item[0].username).to.eql(\"user2\");",
											"    pm.expect(jsonData._embedded.item[0].review).to.eql(\"Some .descriptionzz here3\");",
											"    pm.expect(jsonData._embedded.item[0].rating).to.eql(\"3.5\");",
											"    pm.expect(jsonData._embedded.item[0].votes).to.eql(\"0\");",
											"    pm.expect(jsonData._embedded.item[0].product).to.eql(\"P1\");",
											"    pm.expect(jsonData._embedded.item[0].status).to.eql(\"published\");",
											"    pm.expect(jsonData._embedded.item[0]._links.self.href).to.eql(\"http://localhost:2999/reviews/R3\");",
											"    pm.expect(jsonData._embedded.item[0]._links[\"psidi:product\"].href).to.eql(\"http://localhost:2999/products/P1\");",
											"",
											"    pm.expect(jsonData._embedded.item[1].id).to.eql(\"R11\");",
											"    pm.expect(jsonData._embedded.item[1].username).to.eql(\"user3\");",
											"    pm.expect(jsonData._embedded.item[1].review).to.eql(\"MMMMMM\");",
											"    pm.expect(jsonData._embedded.item[1].rating).to.eql(\"3.5\");",
											"    pm.expect(jsonData._embedded.item[1].votes).to.eql(\"0\");",
											"    pm.expect(jsonData._embedded.item[1].product).to.eql(\"P1\");",
											"    pm.expect(jsonData._embedded.item[1].status).to.eql(\"published\");",
											"    pm.expect(jsonData._embedded.item[1]._links.self.href).to.eql(\"http://localhost:2999/reviews/R11\");",
											"    pm.expect(jsonData._embedded.item[1]._links[\"psidi:product\"].href).to.eql(\"http://localhost:2999/products/P1\");",
											"",
											"});",
											"",
											"",
											"pm.test(\"Next page is as expected\", function () {",
											"    pm.sendRequest({ url: pm.variables.get(\"apiURL\") + pm.request.url.getPath() + \"?page=2&limit=2\" }",
											"        , function (err, res) {",
											"            var jsonData = res.json();",
											"",
											"            pm.expect(jsonData._links.self.href).to.eql(\"http://localhost:2999/products/P1/reviews?page=2&limit=2\");",
											"            pm.expect(jsonData._links.curies[0].name).to.eql(\"psidi\");",
											"            pm.expect(jsonData._links.curies[0].href).to.eql(\"http://localhost:2999/docs\");",
											"            pm.expect(jsonData._links.find.href).to.eql(\"http://localhost:2999/reviews/{?id}\");",
											"            pm.expect(jsonData._links.find.templated).to.eql(true);",
											"            pm.expect(jsonData._links.prev.href).to.eql(\"http://localhost:2999/products/P1/reviews?page=1&limit=2\");",
											"            pm.expect(jsonData._links.item[0].href).to.eql(\"http://localhost:2999/reviews/R10\");",
											"            pm.expect(jsonData._links.item[1].href).to.eql(\"http://localhost:2999/reviews/R12\");",
											"",
											"            pm.expect(jsonData._embedded.item[0].id).to.eql(\"R10\");",
											"            pm.expect(jsonData._embedded.item[0].username).to.eql(\"user2\");",
											"            pm.expect(jsonData._embedded.item[0].review).to.eql(\"Some .descriptionzz here10\");",
											"            pm.expect(jsonData._embedded.item[0].rating).to.eql(\"3.5\");",
											"            pm.expect(jsonData._embedded.item[0].votes).to.eql(\"1\");",
											"            pm.expect(jsonData._embedded.item[0].product).to.eql(\"P1\");",
											"            pm.expect(jsonData._embedded.item[0].status).to.eql(\"published\");",
											"            pm.expect(jsonData._embedded.item[0]._links.self.href).to.eql(\"http://localhost:2999/reviews/R10\");",
											"            pm.expect(jsonData._embedded.item[0]._links[\"psidi:product\"].href).to.eql(\"http://localhost:2999/products/P1\");",
											"",
											"            pm.expect(jsonData._embedded.item[1].id).to.eql(\"R12\");",
											"            pm.expect(jsonData._embedded.item[1].username).to.eql(\"user4\");",
											"            pm.expect(jsonData._embedded.item[1].review).to.eql(\"I really don't like this product. i Mean REalLyy\");",
											"            pm.expect(jsonData._embedded.item[1].rating).to.eql(\"1.5\");",
											"            pm.expect(jsonData._embedded.item[1].product).to.eql(\"P1\");",
											"            pm.expect(jsonData._embedded.item[1].status).to.eql(\"published\");",
											"            pm.expect(jsonData._embedded.item[1]._links.self.href).to.eql(\"http://localhost:2999/reviews/R12\");",
											"            pm.expect(jsonData._embedded.item[1]._links[\"psidi:product\"].href).to.eql(\"http://localhost:2999/products/P1\");",
											"        })",
											"});",
											""
										],
										"type": "text/javascript"
									}
								},
								{
									"listen": "prerequest",
									"script": {
										"exec": [
											"var request = {",
											"    url: pm.variables.get(\"apiURL\") + \"/auth/basic\",",
											"    method: \"POST\",",
											"    header: 'Content-Type:application/json',",
											"    body: {",
											"        mode: 'raw',",
											"        raw: JSON.stringify({ username: \"user1\", password: \"1234\" })",
											"    },",
											"    json: true",
											"}",
											"",
											"pm.sendRequest(request, function (err, res) {})"
										],
										"type": "text/javascript"
									}
								}
							],
							"request": {
								"method": "GET",
								"header": [],
								"url": {
									"raw": "{{apiURL}}/products/P1/reviews?page=1&limit=2",
									"host": [
										"{{apiURL}}"
									],
									"path": [
										"products",
										"P1",
										"reviews"
									],
									"query": [
										{
											"key": "page",
											"value": "1"
										},
										{
											"key": "limit",
											"value": "2"
										}
									]
								}
							},
							"response": []
						}
					]
				},
				{
					"name": "users/auth",
					"item": [
						{
							"name": "Login as moderator",
							"event": [
								{
									"listen": "test",
									"script": {
										"exec": [
											"pm.test(\"Status code is 200\", function () {",
											"    pm.response.to.have.status(200);",
											"});",
											"",
											"pm.test(\"Body is as expected\", function () {",
											"    var body = pm.response.text();",
											"    pm.expect(body).to.eql(\"Login successful\");",
											"});",
											"",
											"",
											"pm.test(\"Invalid user can't login\", function () {",
											"    pm.sendRequest({",
											"        url: pm.request.url,",
											"        method: 'POST',",
											"        body: {",
											"            mode: 'raw',",
											"            raw: JSON.stringify({ username: \"userX\", password: \"Who knows\" })",
											"        }",
											"    }, function (err, res) {",
											"        pm.expect(res.text()).to.eql(\"Invalid login credentials\")",
											"    })",
											"});"
										],
										"type": "text/javascript"
									}
								}
							],
							"request": {
								"method": "POST",
								"header": [],
								"body": {
									"mode": "raw",
									"raw": "{\"username\": \"user6\" , \"password\": \"1234\"}",
									"options": {
										"raw": {
											"language": "json"
										}
									}
								},
								"url": {
									"raw": "{{apiURL}}/auth/basic",
									"host": [
										"{{apiURL}}"
									],
									"path": [
										"auth",
										"basic"
									]
								}
							},
							"response": []
						},
						{
							"name": "Login as customer",
							"request": {
								"method": "POST",
								"header": [],
								"body": {
									"mode": "raw",
									"raw": "{\"username\": \"user1\" , \"password\": \"1234\"}",
									"options": {
										"raw": {
											"language": "json"
										}
									}
								},
								"url": {
									"raw": "{{apiURL}}/auth/basic",
									"host": [
										"{{apiURL}}"
									],
									"path": [
										"auth",
										"basic"
									]
								}
							},
							"response": []
						},
						{
							"name": "register",
							"event": [
								{
									"listen": "test",
									"script": {
										"exec": [
											"pm.test(\"Status code is 201\", function () {",
											"    pm.response.to.have.status(201);",
											"});",
											"",
											"pm.test(\"Body is as expected\", function () {",
											"    var body = pm.response.text();",
											"    pm.expect(body).to.eql(\"User user15 registered.\");",
											"});",
											"",
											"",
											"pm.test(\"Duplicate usernames are not allowed\", function () {",
											"    pm.sendRequest({",
											"        url: pm.request.url,",
											"        method: 'PUT',",
											"        body: {",
											"            mode: 'raw',",
											"            raw: JSON.stringify({ password: \"1234\" })",
											"        }",
											"    }, function (err, res) {",
											"        pm.expect(res.text()).to.eql(\"Username already taken.\")",
											"    })",
											"});"
										],
										"type": "text/javascript"
									}
								}
							],
							"request": {
								"method": "PUT",
								"header": [],
								"body": {
									"mode": "raw",
									"raw": "{\"password\": \"1234\"}",
									"options": {
										"raw": {
											"language": "json"
										}
									}
								},
								"url": {
									"raw": "{{apiURL}}/auth/register/user15",
									"host": [
										"{{apiURL}}"
									],
									"path": [
										"auth",
										"register",
										"user15"
									]
								}
							},
							"response": []
						}
					]
				},
				{
					"name": "Get billboard",
					"request": {
						"method": "GET",
						"header": [],
						"url": {
							"raw": "{{apiURL}}",
							"host": [
								"{{apiURL}}"
							]
						}
					},
					"response": []
				}
			]
		}
	],
	"event": [
		{
			"listen": "prerequest",
			"script": {
				"type": "text/javascript",
				"exec": [
					""
				]
			}
		},
		{
			"listen": "test",
			"script": {
				"type": "text/javascript",
				"exec": [
					""
				]
			}
		}
	],
	"variable": [
		{
			"key": "apiURL",
			"value": "http://localhost:2999"
		},
		{
			"key": "productsURL",
			"value": "http://localhost:3000"
		},
		{
			"key": "reviewsURL",
			"value": "http://localhost:3001"
		},
		{
			"key": "usersURL",
			"value": "http://localhost:3002"
		}
	]
}